[comment encoding = UTF-8 /]
[module generate('http://www.eclipse.org/emf/2002/Ecore', 'platform:/plugin/henrik.sp.model/model/sp.ecore')]


[template public generateElement(department : Department)]
[comment @main/]
[file (department.name.concat('.html'), false, 'UTF-8')]
<html>
<head>
	<title>[department.name/]</title>
	<meta charset="utf-8"/>
</head>
<body>
[for (studyProgram : StudyProgram | department.studyPrograms)]
	<h1>Study plan for [studyProgram.code/]</h1>
	<br>
	[generateElement(studyProgram)/]
[/for]
</body>
</html>
[/file]
[/template]


[template public generateElement(studyProgram : StudyProgram)]
<h2>[studyProgram.name/] - [studyProgram.degree/] ([studyProgram.years/] years)</h2>
[for (specialization : Specialization | Specialization.allInstances())]
	<br><br><hr>
	[generateElement(specialization, studyProgram)/]
[/for]
[/template]

[template public generateElement(spec : Specialization, studyProgram : StudyProgram)]
<h3>[spec.toString().substituteAll('_', ' ')/]</h3>
[for (semester : Semester | studyProgram.semesters)]
	[if semester.specialization = spec]
		[generateElement(semester)/]
	[/if]
[/for]
[/template]

[template public generateElement(semester : Semester)]
<h4>[semester.term/] - Year [semester.year/]</h4>
<table style="width:100%">
<tr>
	<th>Code</th>
	<th>Name</th>
	<th>SP</th>
	<th>Obligatory</th>
</tr>
[for (mandatoryCourse : Course | semester.mandatoryCourses)]
	<tr>[generateElement(mandatoryCourse)/]
	<th>yes</th>
	</tr>
[/for]
[for (electiveCourse : Course | semester.electiveCourses)]
	<tr>[generateElement(electiveCourse)/]
	<th>no</th>
	</tr>
[/for]
</table>
[/template]

[template public generateElement(course : Course)]
<th>[course.code/]</th>
<th>[course.name/]</th>
<th>[course.studyPoints/]</th>
[/template]